<?xml version="1.0" encoding="UTF-8" standalone="no"?>
<svg width="17px" height="20px" viewBox="0 0 17 20" version="1.1" xmlns="http://www.w3.org/2000/svg" xmlns:xlink="http://www.w3.org/1999/xlink">
    <!-- Generator: Sketch 3.6 (26304) - http://www.bohemiancoding.com/sketch -->
    <title>Fill 1</title>
    <desc>Created with Sketch.</desc>
    <defs></defs>
    <g id="Page-1" stroke="none" stroke-width="1" fill="none" fill-rule="evenodd">
        <g id="rev_2_Session-Details-full" transform="translate(-509.000000, -1083.000000)" fill="#3FD18A">
            <path d="M525.954138,1102.27306 C525.82599,1102.22387 525.692887,1102.18452 525.570457,1102.12383 C522.997129,1100.84975 520.422735,1099.57764 517.855887,1098.29093 C517.580761,1098.15305 517.373255,1098.14102 517.090201,1098.28283 C514.39856,1099.63114 511.697999,1100.96167 509.00003,1102.29727 C509.035022,1102.17824 509.057129,1102.05367 509.106757,1101.94099 C511.834761,1095.74974 514.565053,1089.55939 517.295497,1083.36912 C517.339788,1083.2687 517.389569,1083.17063 517.462371,1083.01776 C517.526483,1083.13529 517.570775,1083.20423 517.603479,1083.27824 C520.352676,1089.51527 523.101111,1095.75269 525.848784,1101.99041 C525.889264,1102.08228 525.919223,1102.17877 525.954138,1102.27306" id="Fill-1"></path>
        </g>
    </g>
</svg>